dep : 65, arr : 25, dist : 323.000000
dep : 25, arr : 64, dist : 283.000000
dep : 64, arr : 3, dist : 147.000000
dep : 3, arr : 18, dist : 372.000000
dep : 18, arr : 74, dist : 234.000000
dep : 74, arr : 96, dist : 236.000000
dep : 96, arr : 55, dist : 216.000000
dep : 55, arr : 79, dist : 280.000000
dep : 79, arr : 30, dist : 87.000000
dep : 30, arr : 88, dist : 187.000000
dep : 88, arr : 41, dist : 180.000000
dep : 41, arr : 7, dist : 247.000000
dep : 7, arr : 91, dist : 206.000000
dep : 91, arr : 0, dist : 302.000000
dep : 0, arr : 92, dist : 412.000000
dep : 92, arr : 27, dist : 47.000000
dep : 27, arr : 66, dist : 300.000000
dep : 66, arr : 57, dist : 344.000000
dep : 57, arr : 60, dist : 325.000000
dep : 60, arr : 50, dist : 186.000000
dep : 50, arr : 86, dist : 146.000000
dep : 86, arr : 24, dist : 340.000000
dep : 24, arr : 80, dist : 51.000000
dep : 80, arr : 68, dist : 303.000000
dep : 68, arr : 63, dist : 297.000000
dep : 63, arr : 39, dist : 80.000000
dep : 39, arr : 53, dist : 103.000000
dep : 53, arr : 1, dist : 331.000000
dep : 1, arr : 43, dist : 256.000000
dep : 43, arr : 49, dist : 161.000000
dep : 49, arr : 72, dist : 179.000000
dep : 72, arr : 67, dist : 266.000000
dep : 67, arr : 84, dist : 153.000000
dep : 84, arr : 81, dist : 801.000000
dep : 81, arr : 94, dist : 245.000000
dep : 94, arr : 12, dist : 215.000000
dep : 12, arr : 75, dist : 102.000000
dep : 75, arr : 32, dist : 92.000000
dep : 32, arr : 36, dist : 407.000000
dep : 36, arr : 4, dist : 69.000000
dep : 4, arr : 51, dist : 259.000000
dep : 51, arr : 77, dist : 40.000000
dep : 77, arr : 95, dist : 68.000000
dep : 95, arr : 38, dist : 283.000000
dep : 38, arr : 29, dist : 261.000000
dep : 29, arr : 47, dist : 427.000000
dep : 47, arr : 99, dist : 251.000000
dep : 99, arr : 40, dist : 185.000000
dep : 40, arr : 70, dist : 82.000000
dep : 70, arr : 13, dist : 267.000000
dep : 13, arr : 2, dist : 221.000000
dep : 2, arr : 42, dist : 171.000000
dep : 42, arr : 45, dist : 198.000000
dep : 45, arr : 28, dist : 148.000000
dep : 28, arr : 33, dist : 300.000000
dep : 33, arr : 82, dist : 145.000000
dep : 82, arr : 54, dist : 23.000000
dep : 54, arr : 6, dist : 264.000000
dep : 6, arr : 8, dist : 50.000000
dep : 8, arr : 56, dist : 99.000000
dep : 56, arr : 19, dist : 203.000000
dep : 19, arr : 11, dist : 153.000000
dep : 11, arr : 26, dist : 136.000000
dep : 26, arr : 85, dist : 81.000000
dep : 85, arr : 34, dist : 141.000000
dep : 34, arr : 61, dist : 324.000000
dep : 61, arr : 59, dist : 151.000000
dep : 59, arr : 76, dist : 191.000000
dep : 76, arr : 22, dist : 382.000000
dep : 22, arr : 97, dist : 107.000000
dep : 97, arr : 90, dist : 99.000000
dep : 90, arr : 44, dist : 179.000000
dep : 44, arr : 31, dist : 221.000000
dep : 31, arr : 10, dist : 201.000000
dep : 10, arr : 14, dist : 113.000000
dep : 14, arr : 16, dist : 13.000000
dep : 16, arr : 58, dist : 358.000000
dep : 58, arr : 73, dist : 89.000000
dep : 73, arr : 20, dist : 66.000000
dep : 20, arr : 71, dist : 151.000000
dep : 71, arr : 46, dist : 554.000000
dep : 46, arr : 62, dist : 420.000000
dep : 62, arr : 5, dist : 157.000000
dep : 5, arr : 48, dist : 47.000000
dep : 48, arr : 89, dist : 208.000000
dep : 89, arr : 9, dist : 300.000000
dep : 9, arr : 83, dist : 140.000000
dep : 83, arr : 35, dist : 322.000000
dep : 35, arr : 98, dist : 299.000000
dep : 98, arr : 37, dist : 313.000000
dep : 37, arr : 23, dist : 96.000000
dep : 23, arr : 17, dist : 181.000000
dep : 17, arr : 78, dist : 229.000000
dep : 78, arr : 52, dist : 223.000000
dep : 52, arr : 87, dist : 229.000000
dep : 87, arr : 15, dist : 58.000000
dep : 15, arr : 21, dist : 70.000000
dep : 21, arr : 93, dist : 133.000000
dep : 93, arr : 69, dist : 313.000000
dep : 69, arr : 65, dist : 400.000000

Longueur totale : 21304.000000, temps d'exécution : 78.940000 s